{
    "required": true,
    "minVersion": "0.8",
    "package": "portb.unifiedoptions.mixin",
    "plugin": "portb.unifiedoptions.MixinConfig",
    "compatibilityLevel": "JAVA_8",
    "refmap": "unifiedoptions.refmap.json",
    "client": [
        "DefaultConfigsCopier",
        "GamesSettingsMixin",
        "TutorialNuker"
    ]
}